[
  {
    "name": "default",
    "type": "postgres",
    "host": "localhost",
    "port": 5432,
    "username": "postgres",
    "password": "docker",
    "database": "db_teste_ioasys",
    "entities": [
      "src/modules/**/infra/typeorm/entities/*.ts"
    ],
    "migrations": [
      "src/shared/infra/typeorm/migrations/*.ts"
    ],
    "cli": {
      "migrationsDir": "src/shared/infra/typeorm/migrations"
    }
  }
]